Task 4 Sample analysis – waterbirds-workshop
…
ewater_annual_3m <- ewater_annual_3m |>
  mutate(
    non_env_flow_3m = marebone_total_3m - env_flow_3m
  ) |> 
    select(water_year_nov, non_env_flow_3m, env_flow_3m, marebone_total_3m)

ewater_annual <- ewater_annual |>
  left_join(ewater_annual_3m, by = "water_year_nov")
ewater_annual

# A tibble: 29 × 7
   water_year_nov non_env_flow env_flow marebone_total non_env_flow_3m
            <int>        <int>    <int>          <int>           <int>
 1           1996        93288   166873         260161           64480
 2           1997       158041    38752         196793           20927
 3           1998       648163     8838         657001          425173
 4           1999       358584   113407         471991           17426
 5           2000       918225    22131         940356          286013
 6           2001       511074   166285         677359           28022
 7           2002       151573    47354         198927           12932
 8           2003       104584    44457         149041           33870
 9           2004        62848        0          62848           11152
10           2005        63418        0          63418           13333
# ℹ 19 more rows
# ℹ 2 more variables: env_flow_3m <int>, marebone_total_3m <int>
…
